convert - simple data type conversion
…
d and e to character

Then you can write:

df %>% convert(num(a, b), dte(c), chr(d, e))

Examples

The easiest way to understand how simple convert is to use is with examples. Have a look at the a gapminder dataset from the package gapminder:

library(gapminder)
gapminder

#> # A tibble: 1,704 x 6
#>   country     continent  year lifeExp      pop gdpPercap
#>   <fct>       <fct>     <int>   <dbl>    <int>     <dbl>
#> 1 Afghanistan Asia       1952    28.8  8425333      779.
#> 2 Afghanistan Asia       1957    30.3  9240934      821.
#> 3 Afghanistan Asia       1962    32.0 10267083      853.
#> 4 Afghanistan Asia       1967    34.0 11537966      836.
#> # … with 1,700 more rows

We might want to change the country column to character instead of factor. To do this we use chr together with the column name inside convert:

gapminder %>% 
  convert(chr(country))

#> # A tibble: 1,704 x 6
#>   country     continent  year lifeExp      pop gdpPercap
#>   <chr>       <fct>     <int>   <dbl>    <int>     <dbl>
#> 1 Afghanistan Asia       1952    28.8  8425333      779.
#> 2 Afghanistan Asia       1957    30.3  9240934      821.
#> 3 Afghanistan Asia       1962    32.0 10267083      853.
#> 4 Afghanistan Asia       1967    34.0 11537966      836.
#> # … with 1,700 more rows

This converted the country column to the data type character. But we do not have to make this whole procedure for each column if we want to convert more columns. Let’s say that we also want to convert continent to character and the column lifeExp to integer, pop to double and gdpPercap to numeric. It is simply done:

gapminder %>% 
  convert(chr(country, 
              continent),
          int(lifeExp),
          dbl(pop),
          num(gdpPercap))

#> # A tibble: 1,704 x 6
#>   country     continent  year lifeExp      pop gdpPercap
#>   <chr>       <chr>     <int>   <int>    <dbl>     <dbl>
#> 1 Afghanistan Asia       1952      28  8425333      779.
#> 2 Afghanistan Asia       1957      30  9240934      821.
#> 3 Afghanistan Asia       1962      31 10267083      853.
#> 4 Afghanistan Asia       1967      34 11537966      836.
#> # … with 1,700 more rows

I can already convert between data types. Why do I need convert?

You can change alot of data types with little code. Consider using mutate from dplyr to do the same operation:

gapminder %>%
  mutate(country = as.character(country),
         continent = as.character(continent),
         lifeExp = as.integer(lifeExp),
         pop = as.double(pop),
         gdpPercap = as.numeric(gdpPercap))

#> # A tibble: 1,704 x 6
#>   country     continent  year lifeExp      pop gdpPercap
#>   <chr>       <chr>     <int>   <int>    <dbl>     <dbl>
#> 1 Afghanistan Asia       1952      28  8425333      779.
#> 2 Afghanistan Asia       1957      30  9240934      821.
#> 3 Afghanistan Asia       1962      31 10267083      853.
#> 4 Afghanistan Asia       1967      34 11537966      836.
#> # … with 1,700 more rows
…
#> Warning: funs() is soft deprecated as of dplyr 0.8.0
#> please use list() instead
#> 
#>   # Before:
#>   funs(name = f(.))
#> 
#>   # After: 
#>   list(name = ~ f(.))
#> This warning is displayed once per session.

#> # A tibble: 1,704 x 6
#>   country     continent  year lifeExp      pop gdpPercap
#>   <chr>       <chr>     <int>   <int>    <dbl>     <dbl>
#> 1 Afghanistan Asia       1952      28  8425333      779.
#> 2 Afghanistan Asia       1957      30  9240934      821.
#> 3 Afghanistan Asia       1962      31 10267083      853.
#> 4 Afghanistan Asia       1967      34 11537966      836.
#> # … with 1,700 more rows

Which is more easily scaled to deal with data type conversion of large numbers of variables. However, convert does the same job with much less code. In fact, convert uses mutate_at internally. The difference is syntax and code readability. Compare again with convert:

gapminder %>% 
  convert(chr(country, 
               continent),
           int(lifeExp),
           dbl(pop),
           num(gdpPercap))

#> # A tibble: 1,704 x 6
#>   country     continent  year lifeExp      pop gdpPercap
#>   <chr>       <chr>     <int>   <int>    <dbl>     <dbl>
#> 1 Afghanistan Asia       1952      28  8425333      779.
#> 2 Afghanistan Asia       1957      30  9240934      821.
#> 3 Afghanistan Asia       1962      31 10267083      853.
#> 4 Afghanistan Asia       1967      34 11537966      836.
#> # … with 1,700 more rows
…
#> # A tibble: 2 x 2
#>   dates      sunny
#>   <date>     <chr>
#> 1 1935-02-05 yes  
#> 2 1938-01-13 no

Final note

convert is built upon dplyr and it will share some amazing features of dplyr. For example, tidyselect works with convert which helps you to select multiple columns at the same time. A simple example, if you want to change all columns with names that includes the letter “e” to factors, you can write:

gapminder %>% 
  convert(fct(contains("e")))

#> # A tibble: 1,704 x 6
#>   country     continent year  lifeExp      pop gdpPercap  
#>   <fct>       <fct>     <fct> <fct>      <int> <fct>      
#> 1 Afghanistan Asia      1952  28.801   8425333 779.4453145
#> 2 Afghanistan Asia      1957  30.332   9240934 820.8530296
#> 3 Afghanistan Asia      1962  31.997  10267083 853.10071  
#> 4 Afghanistan Asia      1967  34.02   11537966 836.1971382
#> # … with 1,700 more rows
…
