s - short and simple summarizing
…
Say that we want to calculate find the height of the tallest human from each homeworld. For precautionary reasons, we drop all rows with missing values from the height column so that we do not get the same problem as before.

df %>% 
  filter(!is.na(height)) %>% 
  group_by(homeworld) %>% 
  summarize(tallest_human = max(height[species == "Human"]))

#> # A tibble: 49 x 2
#>    homeworld      tallest_human
#>    <chr>                  <dbl>
#>  1 Alderaan                 191
#>  2 Aleen Minor             -Inf
#>  3 Bespin                   175
#>  4 Bestine IV               180
#>  5 Cato Neimoidia          -Inf
#>  6 Cerea                   -Inf
#>  7 Champala                -Inf
#>  8 Chandrila                150
#>  9 Concord Dawn             183
#> 10 Corellia                 180
#> # ... with 39 more rows

We got negative infinity -Inf again. How could this be?

This is because some homeworld have no humans, e.g. Cerea. R tries to calculate the maximum value of nothing. The s function can help you out! Since it returns NA if the vector is empty we get:

df %>% 
  filter(!is.na(height)) %>% 
  group_by(homeworld) %>% 
  summarize(tallest_human = max(s(height[species == "Human"])))

#> # A tibble: 49 x 2
#>    homeworld      tallest_human
#>    <chr>                  <int>
#>  1 Alderaan                 191
#>  2 Aleen Minor               NA
#>  3 Bespin                   175
#>  4 Bestine IV               180
#>  5 Cato Neimoidia            NA
#>  6 Cerea                     NA
#>  7 Champala                  NA
#>  8 Chandrila                150
#>  9 Concord Dawn             183
#> 10 Corellia                 180
#> # ... with 39 more rows
…
